<?xml version="1.0" encoding="utf-8"?>
<!-- Generator: Adobe Illustrator 19.0.0, SVG Export Plug-In . SVG Version: 6.00 Build 0)  -->
<svg version="1.1" id="Layer_1" xmlns="http://www.w3.org/2000/svg" xmlns:xlink="http://www.w3.org/1999/xlink" x="0px" y="0px"
	 viewBox="0 0 3730 1618" style="enable-background:new 0 0 3730 1618;" xml:space="preserve">
<style type="text/css">
	.st0{fill:#386AB3;}
	.st1{fill:#FFFFFF;}
	.st2{font-family:'Montserrat-Regular';}
	.st3{font-size:853.7123px;}
</style>
<path id="XMLID_1_" class="st0" d="M2949.6,1524.4H780.4C385.3,1524.4,65,1204.1,65,809v0C65,413.9,385.3,93.6,780.4,93.6h2169.2
	c395.1,0,715.4,320.3,715.4,715.4v0C3665,1204.1,3344.7,1524.4,2949.6,1524.4z"/>
<text id="XMLID_2_" transform="matrix(1 0 0 1 808.5416 1064.9011)" class="st1 st2 st3">Cash</text>
</svg>
