<svg xmlns="http://www.w3.org/2000/svg" width="32" height="32" viewBox="0 0 32 32">
    <g fill="none" fill-rule="evenodd" stroke="#545454" stroke-linecap="round" stroke-width="2">
        <path stroke-linejoin="round" d="M28 16L4 28l3.857-12L4 4z"/>
        <path d="M8 16h6"/>
    </g>
</svg>
