<svg xmlns="http://www.w3.org/2000/svg" width="120" height="187" viewBox="0 0 120 187">
    <g fill="#000" fill-rule="evenodd">
        <path d="M23.415 41.756a10.06 10.06 0 0 1 5.487 8.964v42.256H8.78V50.72c0-3.91 2.23-7.3 5.488-8.964v-5.854h9.147v5.854zM5.488 32.61v-9.147h14.634c6.22 1.708 8.537 3.78 9.512 6.22 0 .504 0 1.463-1.097 1.463H26.34c-2.439 1.464-3.658 2.805-3.658 4.025h-8.049L9.878 32.61l.026.262a7 7 0 0 1-2.126 5.755L2.862 43.33a1.6 1.6 0 0 1-2.13.072A1.59 1.59 0 0 1 .427 41.3l5.06-7.592V32.61zm-.549-9.147v6.22a3.11 3.11 0 1 1 0-6.22zM69.08 140.13c-2.25 1.647-4.926 2.602-7.8 2.602-7.98 0-14.45-7.371-14.45-16.464 0-7.45 4.344-13.745 10.305-15.776L46.098 82.366l-8.78-4.39 4.39-71.342L43.17.78l2.56 5.122 6.22 72.44 12.936 31.98c6.236 1.825 10.845 8.272 10.845 15.946 0 1.712-.23 3.364-.655 4.916-.087 2.054 1.473 4.683 4.68 7.89.487.487 2.194 1.828 5.121 4.024-.244 1.95-1.707 2.682-4.39 2.195-.488-.488-1.951-1.708-4.39-3.659-2.754-1.468-5.093-1.97-7.017-1.504zm-35.507-30.316c4.83 2.132 8.402 7.134 9.105 13.17a3.659 3.659 0 1 1-.582 7.293c-1.886 6.593-7.326 11.357-13.742 11.357-7.982 0-14.452-7.37-14.452-16.463 0-8.884 6.176-16.124 13.904-16.452l9.145-27.085 7.683 3.293-11.06 24.887zm-5.22 27.064c5.557 0 10.062-5.241 10.062-11.707 0-6.466-4.505-11.708-10.061-11.708-5.557 0-10.061 5.242-10.061 11.708s4.504 11.707 10.06 11.707zm15.915-61.463a2.195 2.195 0 1 0 0-4.39 2.195 2.195 0 0 0 0 4.39zm17.012 62.56c5.557 0 10.061-5.24 10.061-11.707 0-6.465-4.504-11.707-10.06-11.707-5.557 0-10.061 5.242-10.061 11.707 0 6.466 4.504 11.708 10.06 11.708z"/>
        <path d="M77.927 35.032a6.04 6.04 0 0 1 4.39 5.81v2.217c7.437 2.455 12.805 9.461 12.805 17.721 0 5.932-2.768 11.217-7.082 14.635H64.887c-4.314-3.418-7.082-8.703-7.082-14.635 0-8.124 5.192-15.035 12.439-17.596V40.84a6.04 6.04 0 0 1 4.39-5.809V28.22h3.293v6.812zm11.707-11.124a5.306 5.306 0 0 1 4.39 5.226h-2.926c0-1.18-.86-2.158-1.986-2.346a402.43 402.43 0 0 1-17.405.7c-.227 0-.442-.004-.645-.013a2 2 0 0 1-1.916-1.998v-.001c0-.91.737-1.647 1.647-1.647h18.841v.079zM104.291 51.272v13.176h-2.195v22.678c-1.968-.04-2.952-.04-2.95 0 .389 12.805 2.584 26.341 4.413 31.83.02.059 3.803.059 11.348 0 3.167-14.147 4.75-24.757 4.75-31.83 0-.048-.976-.048-2.927 0V64.44h-1.865V43.951l-10.574 7.321zM90.883 129.927c.059-.116.106-.238.142-.366H79.756a.366.366 0 1 1 0-.732h11.342v-.366H79.756a.366.366 0 1 1 0-.731h11.342v-.366H79.756a.366.366 0 1 1 0-.732h11.342v-.366H79.756a.366.366 0 1 1 0-.731h11.342v-.366H79.756a.366.366 0 1 1 0-.732h11.342v-.366H79.756a.366.366 0 1 1 0-.732h11.342v-.365H79.756a.366.366 0 1 1 0-.732h11.342v-.366H79.756a.366.366 0 1 1 0-.732h11.342v-.366H79.756a.366.366 0 1 1 0-.731h11.342v-.366H79.756a.366.366 0 1 1 0-.732h11.342v-.366H79.756a.366.366 0 1 1 0-.731h11.342v-.366H79.756a.366.366 0 1 1 0-.732h11.342v-.366H79.756a.366.366 0 1 1 0-.731h11.342v-.366H79.756a.366.366 0 1 1 0-.732h11.342v-.366H79.756a.366.366 0 1 1 0-.732h11.342v-.365H79.756a.366.366 0 1 1 0-.732h11.342V112H79.756a.366.366 0 1 1 0-.732h11.342v-.366H79.756a.366.366 0 1 1 0-.731h11.342v-.366H79.756a.366.366 0 1 1 0-.732h11.342v-.366H79.756a.366.366 0 1 1 0-.731h11.342v-.366H79.756a.366.366 0 1 1 0-.732h11.342v-.366H79.756a.366.366 0 1 1 0-.732h11.342v-.365H79.756a.366.366 0 1 1 0-.732h11.342v-.366H79.756a.366.366 0 1 1 0-.732h11.342v-.365H79.756a.366.366 0 1 1 0-.732h11.342v-.366H79.756a.366.366 0 1 1 0-.732h11.342v-.366H79.756a.366.366 0 1 1 0-.731h11.342v-.366H79.756a.366.366 0 0 1 0-.732h11.342v-.366H79.756a.366.366 0 0 1 0-.731h11.342v-.366H79.756a.366.366 0 0 1 0-.732h11.342v-.366H79.756a.366.366 0 1 1 0-.732h11.342v-.365H79.756a.366.366 0 0 1 0-.732h11.342v-.366H79.756a.366.366 0 0 1 0-.732h11.342v-.366H79.756a.366.366 0 0 1 0-.731h11.342v-.366H79.756a.366.366 0 1 1 0-.732h11.342v-.366H79.756a.366.366 0 0 1 0-.731h11.342v-.366H79.756a.366.366 0 0 1 0-.732h11.342v-.366H79.756a.366.366 0 0 1 0-.731h11.342v-.366H79.756a.366.366 0 1 1 0-.732h11.342v-.366H79.756a.366.366 0 0 1 0-.732h11.342v-.365H79.756a.366.366 0 0 1 0-.732h11.269a1.986 1.986 0 0 0-.142-.366H79.756a.366.366 0 0 1 0-.732h10.495a1.99 1.99 0 0 0-1.153-.366h-9.434a3.997 3.997 0 0 1 3.36-1.829h7a4 4 0 0 1 4 4v60.025h-1.097v40.426a.915.915 0 1 1-1.83 0V145.66H90c.003-3.314-.119-5.753-.366-7.318-.202-1.283-.65-2.99-1.34-5.121h-5.27a4 4 0 0 1-3.57-2.196h9.644c.43 0 .827-.135 1.153-.365H79.756a.366.366 0 1 1 0-.732h11.127z"/>
    </g>
</svg>
