<svg xmlns="http://www.w3.org/2000/svg" width="24" height="24" viewBox="0 0 24 24">
    <g fill="none" fill-rule="nonzero" transform="translate(4 2)">
        <path stroke="#545454" stroke-linecap="round" stroke-linejoin="round" stroke-width="2" d="M8 20c5.333-5.054 8-9.054 8-12A8 8 0 1 0 0 8c0 2.946 2.667 6.946 8 12z"/>
        <circle cx="8" cy="8" r="2" fill="#545454"/>
    </g>
</svg>
