<svg xmlns="http://www.w3.org/2000/svg" width="232" height="111" viewBox="0 0 232 111">
    <g fill="#000" fill-rule="evenodd">
        <path d="M148.38 64.984l.423.492 5.637-6.241-.371-.333-5.688 6.082m-11.767-27.678l.532.171 4.743-10.341-.519-.237-4.756 10.407m84.56-8.536l-.56.242 5.279 12.087.45-.194-5.17-12.135m-10.672 81.417c4.587-13.835 5.334-27.384-.474-41.344-1.545 6.042-1.911 6.176-6.38 2.483-5.04-4.165-8.204-9.595-10.395-15.66-.35-.971-.678-1.95-1.06-3.045-1.148 2.414-.928 5.714.962 10.159 1.337 3.143 3.012 6.142 4.581 9.295-3.399-.735-5.132-3.366-12.636-16.865-3.528-6.347-6.757-12.666-6.846-19.746-2.044 3.66-4.157 7.474-6.297 11.272-2.241 3.977-3.66 8.179-3.735 12.794-.014.922-.308 1.84-.49 2.852-2.555-1.586-2.793-4.06-1.581-15.734-.88 1.171-1.428 1.868-1.942 2.59-3.03 4.25-5.863 8.658-9.146 12.7-1.992 2.452-4.532 4.534-7.083 6.436-3.894 2.905-4.515 7.061-4.725 11.333-.486 9.891 1.608 19.455 4.032 28.96.114.445.178.905-.166 1.617-.406-.587-.852-1.15-1.211-1.764-7.057-12.07-12.513-24.727-14.676-38.677-1.142-7.356-.212-14.558.888-21.784 1.042-6.843 2.52-13.572 5.706-19.789 6.41-12.511 17.216-18.907 30.56-21.49 14.397-2.788 27.892.549 40.747 6.89 6.04 2.981 10.651 7.741 13.934 13.633 5.34 9.586 9.089 19.695 8.782 30.869-.237 8.589-1.905 16.943-5.925 24.598-4.588 8.732-9.503 17.293-14.293 25.918-.3.542-.75 1.001-1.131 1.499zm-41.204-62.919c.643-2.25 1.688-4.18 3.135-5.788 2.653-2.411 3.136-7.235 3.136-6.27 0 .965-3.86 5.788-4.824 7.235-.643.965-1.125 2.572-1.447 4.823zm15.435 1.93c-.322-2.251-.804-3.86-1.447-4.824-.965-1.447-4.341-7.235-4.341-8.2 0-.964 0 4.824 2.653 7.236 1.447 1.607 2.492 3.537 3.135 5.788zM93.88 7.241c.012 7.058-3.234 12.792-8.018 18.502C92.088 21.782 95.8 12.917 93.88 7.24M80.69 64.521c-1.693-.638-3.026-.581-5.666.803-6.945 3.64-14.074 5.823-22.036 3.243 1.85 1.075 3.762 2.044 5.764 2.297 4.713.597 8.96-1.223 13.193-3.045 3.023-1.3 6.16-2.333 8.745-3.298m-21.893-25.57c-6.557 1.182-13.154 2.523-18.599 6.522-4.235 3.11-6.21 7.727-5.826 13.086.176 2.442 1.084 4.625 3.491 6.071-.448-1.858-1.136-3.512-1.204-5.192-.349-8.578 3.608-14.226 12.092-17.306 3.299-1.198 6.694-2.128 10.046-3.181m39.586 57.46c-.344-1.723-.922-3.356-.955-5-.12-5.913-1.659-11.426-4.481-16.56-3.66-6.654-7.542-8.134-14.794-5.818-3.818 1.22-7.577 2.63-11.417 3.774-6.47 1.926-12.672 1.545-18.425-2.417-1.773-1.221-3.748-1.556-5.951-.875-5.354 1.657-10.78 3.077-16.135 4.732-3.854 1.192-6.006 4.133-7.254 7.81-1.973 5.81-1.999 11.8-1.817 17.854.076 2.53-.614 5.085-.955 7.628l-.859.02c-.265-.413-.713-.803-.769-1.243-1.002-7.886-5.056-14.47-8.975-21.106-1.872-3.17-4.276-6.136-4.345-10.03-.042-2.389.453-4.786.39-7.172-.08-3.078.004-6.288-.84-9.19C-.91 52.94.15 47.811 3.716 42.45l.957 8.54.937.068c.213-.665.56-1.318.619-1.996 1.354-15.391 11.236-26.775 26.443-29.774 5.797-1.143 11.785-1.305 17.68-1.968 6.85-.77 13.714-1.459 20.527-2.482 2.147-.323 4.28-1.384 6.189-2.502 2.962-1.738 3.553-3.498 3.69-9.036 2.863 1.798 3.716 4.383 3.9 7.724 2.882-1.908 2.975-4.709 3.222-7.468 1.686 1.605 2.112 3.437 2.101 8.825 2.65-1.651 2.863-6.95.49-12.207 11.027 4.665 21.98 17.383 10.206 38.412 1.644-1.111 3.287-2.223 5.135-3.474-.182 5.895 2.653 10.496 5.81 15.165 7.209 10.665 5.35 27.02-3.734 36.278-3.017 3.074-5.982 6.199-9.507 9.857zM81.87 37.157c4.468-.499 5.915-2.428 5.921-6.849-.612 3.677-2.57 5.935-5.921 6.85zm8.204-2.428v.015c2.264-.594 4.05-1.886 4.463-4.274 0 2.812-1.447 4.259-4.463 4.259zM10.61 44.857c.965 0 1.447-.161 1.447-.483.965-12.54 8.682-16.399 8.682-16.399-5.788 3.216-9.164 8.843-10.129 16.882z"/>
    </g>
</svg>
